[gd_resource type="Resource" load_steps=2 format=2]

[ext_resource path="res://resdef/Help.gd" type="Script" id=1]

[resource]
script = ExtResource( 1 )
help_name = [ "Sound Test", "Music", "SFX" ]
help_desc = [ "The [b]Sound Test[/b] lets you test any sound in the whole game. Music, sound effects, they're all here!", "When you select the Music selector, you can press left or right to change the song. Press accept to play the current song from the beginning.", "When you select the SFX selector, you can press left or right to change the sound effect. Press accept to replay the current sound effect." ]
