[gd_resource type="Resource" load_steps=3 format=2]

[ext_resource path="res://resdef/Card.gd" type="Script" id=1]
[ext_resource path="res://texture/cardart/spr_card_aristotle.png" type="Texture" id=2]

[resource]
script = ExtResource( 1 )
card_name = "Epicurus"
card_type = 1
card_element = 2
art = ExtResource( 2 )
attack = 3
overlay_attack = 3
defense = 3
overlay_defense = 3
overlay_count = 1
weakness = 3
weakness_amount = 2
resist = 1
resist_amount = 2
modifiers = [ 2 ]
card_text = "When Activated: If you have a Greek card on your bench, you can send one card from your bench to the deck to discard one of your opponent's Benched cards.

In Dialog: This card gains 1+ Attack for every Greek card on your bench."
card_flavor = ""
archetypes = [ 1 ]
